<?xml version="1.0" encoding="UTF-8" standalone="no"?>
<!-- Created with Inkscape (http://www.inkscape.org/) -->

<svg
   width="467.28641mm"
   height="114.50336mm"
   viewBox="0 0 467.28642 114.50337"
   version="1.1"
   id="svg5"
   inkscape:version="1.1 (1:1.1+202106031931+af4d65493e)"
   sodipodi:docname="icon_logo.svg"
   inkscape:export-filename="/media/david/ExtraPineidenX/webcuentavotos/cuentavotos/src/loco.png"
   inkscape:export-xdpi="200"
   inkscape:export-ydpi="200"
   xmlns:inkscape="http://www.inkscape.org/namespaces/inkscape"
   xmlns:sodipodi="http://sodipodi.sourceforge.net/DTD/sodipodi-0.dtd"
   xmlns="http://www.w3.org/2000/svg"
   xmlns:svg="http://www.w3.org/2000/svg">
  <sodipodi:namedview
     id="namedview7"
     pagecolor="#ffffff"
     bordercolor="#666666"
     borderopacity="1.0"
     inkscape:pageshadow="2"
     inkscape:pageopacity="0.0"
     inkscape:pagecheckerboard="0"
     inkscape:document-units="mm"
     showgrid="false"
     inkscape:zoom="0.28327989"
     inkscape:cx="459.93347"
     inkscape:cy="754.60348"
     inkscape:window-width="1600"
     inkscape:window-height="835"
     inkscape:window-x="0"
     inkscape:window-y="0"
     inkscape:window-maximized="1"
     inkscape:current-layer="layer1"
     fit-margin-top="0"
     fit-margin-left="0"
     fit-margin-right="0"
     fit-margin-bottom="0"
     inkscape:rotation="-1" />
  <defs
     id="defs2">
    <rect
       x="473.89786"
       y="53.782997"
       width="767.09576"
       height="392.0166"
       id="rect2693" />
  </defs>
  <g
     inkscape:label="Capa 1"
     inkscape:groupmode="layer"
     id="layer1"
     transform="translate(-36.308124,-45.882832)">
    <g
       id="g7152">
      <g
         id="g5666"
         style="fill:#56334b"
         transform="translate(1.0583333,1.0583333)">
        <rect
           style="fill:#56334b;fill-opacity:1;stroke:none;stroke-width:0.538203"
           id="rect5633"
           width="117.35248"
           height="18.907503"
           x="37.558704"
           y="96.161705"
           transform="matrix(0.96670331,-0.25589981,0,1,0,0)" />
        <rect
           style="fill:#56334b;fill-opacity:1;stroke:none;stroke-width:0.538203"
           id="rect5635"
           width="117.35248"
           height="18.907503"
           x="37.558704"
           y="117.81014"
           transform="matrix(0.96670331,-0.25589981,0,1,0,0)" />
        <rect
           style="fill:#56334b;fill-opacity:1;stroke:none;stroke-width:0.538203"
           id="rect5637"
           width="117.35248"
           height="18.907503"
           x="37.558704"
           y="139.3945"
           transform="matrix(0.96670331,-0.25589981,0,1,0,0)" />
        <rect
           style="fill:#56334b;fill-opacity:1;stroke:none;stroke-width:0.538203"
           id="rect5639"
           width="117.35248"
           height="18.907503"
           x="47.4632"
           y="-96.939728"
           transform="matrix(0.25589981,0.96670331,-1,0,0,0)" />
        <rect
           style="fill:#56334b;fill-opacity:1;stroke:none;stroke-width:0.538203"
           id="rect5641"
           width="117.35248"
           height="18.907503"
           x="47.4632"
           y="-75.29129"
           transform="matrix(0.25589981,0.96670331,-1,0,0,0)" />
        <rect
           style="fill:#56334b;fill-opacity:1;stroke:none;stroke-width:0.538203"
           id="rect5643"
           width="117.35248"
           height="18.907503"
           x="37.558704"
           y="139.3945"
           transform="matrix(0.96670331,-0.25589981,0,1,0,0)" />
        <rect
           style="fill:#56334b;fill-opacity:1;stroke:none;stroke-width:0.538203"
           id="rect5645"
           width="117.35248"
           height="18.907503"
           x="47.4632"
           y="-96.939728"
           transform="matrix(0.25589981,0.96670331,-1,0,0,0)" />
        <rect
           style="fill:#56334b;fill-opacity:1;stroke:none;stroke-width:0.538203"
           id="rect5647"
           width="117.35248"
           height="18.907503"
           x="47.4632"
           y="-53.706932"
           transform="matrix(0.25589981,0.96670331,-1,0,0,0)" />
        <path
           id="path5649"
           style="fill:#56334b;fill-opacity:1;stroke:none;stroke-width:2"
           d="m 452.54297,325.47266 -66.78125,17.67773 17.67773,66.78125 66.78125,-17.67773 z"
           transform="scale(0.26458333)" />
        <path
           id="path5651"
           style="fill:#56334b;fill-opacity:1;stroke:none;stroke-width:2"
           d="m 299.84375,365.89453 -66.78125,17.67774 17.67773,66.78125 66.78125,-17.67774 z"
           transform="scale(0.26458333)" />
        <path
           id="path5653"
           style="fill:#56334b;fill-opacity:1;stroke:none;stroke-width:2"
           d="m 355.83984,269.25 -66.78125,17.67773 17.67774,66.78321 66.78125,-17.67774 z"
           transform="scale(0.26458333)" />
      </g>
      <rect
         style="fill:#00bcff;fill-opacity:1;stroke:none;stroke-width:0.538203"
         id="rect846"
         width="117.35248"
         height="18.907503"
         x="37.558704"
         y="96.161705"
         transform="matrix(0.96670331,-0.25589981,0,1,0,0)" />
      <rect
         style="fill:#ff4c00;fill-opacity:1;stroke:none;stroke-width:0.538203"
         id="rect1026"
         width="117.35248"
         height="18.907503"
         x="37.558704"
         y="117.81014"
         transform="matrix(0.96670331,-0.25589981,0,1,0,0)" />
      <rect
         style="fill:#00bcff;fill-opacity:1;stroke:none;stroke-width:0.538203"
         id="rect1028"
         width="117.35248"
         height="18.907503"
         x="37.558704"
         y="139.3945"
         transform="matrix(0.96670331,-0.25589981,0,1,0,0)" />
      <rect
         style="fill:#dfff00;fill-opacity:1;stroke:none;stroke-width:0.538203"
         id="rect2172"
         width="117.35248"
         height="18.907503"
         x="47.4632"
         y="-96.939728"
         transform="matrix(0.25589981,0.96670331,-1,0,0,0)" />
      <rect
         style="fill:#ffd700;fill-opacity:1;stroke:none;stroke-width:0.538203"
         id="rect2174"
         width="117.35248"
         height="18.907503"
         x="47.4632"
         y="-75.29129"
         transform="matrix(0.25589981,0.96670331,-1,0,0,0)" />
      <rect
         style="fill:#00bcff;fill-opacity:1;stroke:none;stroke-width:0.538203"
         id="rect5607"
         width="117.35248"
         height="18.907503"
         x="37.558704"
         y="139.3945"
         transform="matrix(0.96670331,-0.25589981,0,1,0,0)" />
      <rect
         style="fill:#dfff00;fill-opacity:1;stroke:none;stroke-width:0.538203"
         id="rect5609"
         width="117.35248"
         height="18.907503"
         x="47.4632"
         y="-96.939728"
         transform="matrix(0.25589981,0.96670331,-1,0,0,0)" />
      <rect
         style="fill:#dfff00;fill-opacity:1;stroke:none;stroke-width:0.538203"
         id="rect2176"
         width="117.35248"
         height="18.907503"
         x="47.4632"
         y="-53.706932"
         transform="matrix(0.25589981,0.96670331,-1,0,0,0)" />
      <path
         id="rect5618"
         style="fill:#ff4c00;fill-opacity:1;stroke:none;stroke-width:2"
         d="m 452.54297,325.47266 -66.78125,17.67773 17.67773,66.78125 66.78125,-17.67773 z"
         transform="scale(0.26458333)" />
      <path
         id="rect5623"
         style="fill:#ff4c00;fill-opacity:1;stroke:none;stroke-width:2"
         d="m 299.84375,365.89453 -66.78125,17.67774 17.67773,66.78125 66.78125,-17.67774 z"
         transform="scale(0.26458333)" />
      <path
         id="rect5628"
         style="fill:#00bcff;fill-opacity:1;stroke:none;stroke-width:2"
         d="m 355.83984,269.25 -66.78125,17.67773 17.67774,66.78321 66.78125,-17.67774 z"
         transform="scale(0.26458333)" />
    </g>
    <text
       xml:space="preserve"
       transform="matrix(1.1077775,0,0,1.1077775,-365.56942,-11.50964)"
       id="text2691"
       style="font-style:normal;font-variant:normal;font-weight:normal;font-stretch:normal;font-size:40px;line-height:1.25;font-family:monospace;-inkscape-font-specification:'monospace, Normal';font-variant-ligatures:normal;font-variant-caps:normal;font-variant-numeric:normal;font-variant-east-asian:normal;letter-spacing:0px;word-spacing:0px;white-space:pre;shape-inside:url(#rect2693);fill:#000000;fill-opacity:1;stroke:none"><tspan
         x="473.89844"
         y="89.173828"
         id="tspan7220">CuentaVotos
</tspan><tspan
         x="473.89844"
         y="139.17383"
         id="tspan7222">Constituyente</tspan></text>
  </g>
</svg>
